<svg xmlns="http://www.w3.org/2000/svg"
     width="50px"
     viewBox="0 0 50 150">
  <path id="Selection"
        fill="none" stroke="black" stroke-width="1"
        d="
           M 0.50,0.50
           C 0.50,0.50 49.50,0.50 49.50,0.50
             49.50,0.50 49.50,149.50 49.50,149.50
             49.50,149.50 0.50,149.50 0.50,149.50
             0.50,149.50 0.50,0.50 0.50,0.50 Z
           M 45.00,150.00
           C 45.00,150.00 45.00,140.00 45.00,140.00
             45.00,140.00 50.00,140.00 50.00,140.00 Z
           M 50.00,137.00
           C 50.00,137.00 44.00,137.00 44.00,137.00
             44.00,137.00 44.00,126.00 44.00,126.00

             44.00,126.00 38.00,126.00 38.00,126.00

             38.00,126.00 37.00,137.00 37.00,137.00

             37.00,137.00 37.00,126.00 37.00,126.00

             37.00,126.00 30.00,126.00 30.00,126.00

             30.00,126.00 30.00,137.00 30.00,137.00

             30.00,137.00 30.00,126.00 30.00,126.00
             30.00,126.00 24.00,126.00 24.00,126.00
             24.00,126.00 23.00,137.00 23.00,137.00
             23.00,137.00 23.00,126.00 23.00,126.00
             23.00,126.00 17.00,126.00 17.00,126.00
             17.00,126.00 16.00,137.00 16.00,137.00
             16.00,137.00 16.00,126.00 16.00,126.00
             16.00,126.00 10.00,126.00 10.00,126.00
             10.00,126.00 10.00,140.00 10.00,140.00
             10.00,140.00 10.00,125.00 10.00,125.00
             10.00,125.00 50.00,125.00 50.00,125.00
             50.00,125.00 50.00,112.00 50.00,112.00
             50.00,112.00 40.00,112.00 40.00,112.00
             40.00,112.00 40.00,100.00 40.00,100.00
             40.00,100.00 40.00,110.00 40.00,110.00
             40.00,110.00 50.00,110.00 50.00,110.00
             50.00,110.00 50.00,93.00 50.00,93.00
             50.00,93.00 30.00,93.00 30.00,93.00
             30.00,93.00 30.00,112.00 30.00,112.00
             30.00,112.00 16.00,110.00 16.00,110.00
             16.00,110.00 28.00,110.00 28.00,110.00
             28.00,110.00 28.00,100.00 28.00,100.00
             28.00,100.00 10.00,100.00 10.00,100.00
             10.00,100.00 10.00,112.00 10.00,112.00
             10.00,112.00 10.00,100.00 10.00,100.00
             10.00,100.00 17.00,100.00 17.00,100.00
             17.00,100.00 16.00,90.00 16.00,90.00
             18.00,92.00 18.00,95.00 18.00,100.00
             18.00,100.00 28.00,100.00 28.00,100.00
             28.00,100.00 28.00,90.00 28.00,90.00
             28.00,90.00 24.00,88.00 24.00,88.00
             24.00,88.00 30.00,88.00 30.00,88.00
             30.00,88.00 30.00,92.00 30.00,92.00
             30.00,92.00 50.00,92.00 50.00,92.00
             50.00,92.00 50.00,82.00 50.00,82.00
             50.00,82.00 28.00,80.00 28.00,80.00
             28.00,80.00 50.00,80.00 50.00,80.00
             50.00,80.00 50.00,75.00 50.00,75.00
             50.00,75.00 23.00,75.00 23.00,75.00
             23.00,75.00 23.00,80.00 23.00,80.00
             23.00,80.00 10.00,80.00 10.00,80.00
             10.00,80.00 10.00,90.00 10.00,90.00
             10.00,90.00 10.00,70.00 10.00,70.00
             10.00,70.00 10.00,74.00 10.00,74.00
             10.00,74.00 50.00,74.00 50.00,74.00
             50.00,74.00 50.00,64.00 50.00,64.00
             50.00,64.00 10.00,64.00 10.00,64.00
             10.00,64.00 10.00,55.00 10.00,55.00
             10.00,55.00 14.00,57.00 14.00,57.00
             14.00,57.00 14.00,63.00 14.00,63.00
             14.00,63.00 20.00,63.00 20.00,63.00
             20.00,63.00 20.00,60.00 20.00,60.00
             20.00,60.00 27.00,60.00 27.00,60.00
             27.00,60.00 27.00,63.00 27.00,63.00
             27.00,63.00 50.00,63.00 50.00,63.00
             50.00,63.00 50.00,4.00 50.00,4.00
             50.00,4.00 37.00,4.00 37.00,4.00
             37.00,4.00 37.00,0.00 37.00,0.00
             37.00,0.00 10.00,0.00 10.00,0.00
             10.00,0.00 10.00,30.00 10.00,30.00
             10.00,30.00 10.00,50.00 10.00,50.00
             10.00,50.00 10.00,0.00 10.00,0.00 Z
           M 16.00,7.00
           C 16.00,7.00 24.00,7.00 24.00,7.00
             24.00,7.00 24.00,14.00 24.00,14.00
             24.00,14.00 16.00,14.00 16.00,14.00
             16.00,14.00 16.00,7.00 16.00,7.00 Z
           M 34.00,7.00
           C 34.00,7.00 42.00,7.00 42.00,7.00
             42.00,7.00 42.00,14.00 42.00,14.00
             42.00,14.00 34.00,14.00 34.00,14.00
             34.00,14.00 34.00,7.00 34.00,7.00 Z
           M 35.00,25.00
           C 35.00,25.00 42.00,25.00 42.00,25.00
             42.00,25.00 42.00,33.00 42.00,33.00
             42.00,33.00 35.00,33.00 35.00,33.00
             35.00,33.00 35.00,25.00 35.00,25.00 Z
           M 16.00,26.00
           C 16.00,26.00 24.00,26.00 24.00,26.00
             24.00,26.00 24.00,33.00 24.00,33.00
             24.00,33.00 16.00,33.00 16.00,33.00
             16.00,33.00 16.00,26.00 16.00,26.00 Z
           M 16.00,40.00
           C 16.00,40.00 24.00,40.00 24.00,40.00
             24.00,40.00 24.00,47.00 24.00,47.00
             24.00,47.00 16.00,47.00 16.00,47.00
             16.00,47.00 16.00,40.00 16.00,40.00 Z
           M 34.00,40.00
           C 34.00,40.00 42.00,40.00 42.00,40.00
             42.00,40.00 42.00,47.00 42.00,47.00
             42.00,47.00 34.00,47.00 34.00,47.00
             34.00,47.00 34.00,40.00 34.00,40.00 Z"/>
</svg>